OK
for a in selection do move a [(a.pos.x)*(random -0.3 0.3),0,(a.pos.x)*(random -0.3 0.3)]
OK
for a in selection do rotate a (angleaxis (random 50 360) [(random -1 1),(random -1 1),(random -1 1)])
OK
for a in selection do movekeys a ((distance a $sphere01)/5)
OK
for a in selection do addmodifier a (flex flex:2)
OK